{
  "project_info": {
    "project_number": "228542019113",
    "firebase_url": "https://babyhoodstock.firebaseio.com",
    "project_id": "babyhoodstock",
    "storage_bucket": "babyhoodstock.appspot.com"
  },
  "client": [
    {
      "client_info": {
        "mobilesdk_app_id": "1:228542019113:android:74dc51cb5b085d34",
        "android_client_info": {
          "package_name": "com.nicoa.babyhoodstock"
        }
      },
      "oauth_client": [
        {
          "client_id": "228542019113-bjt65u0076ofbjj76pm7gne2d3aprem8.apps.googleusercontent.com",
          "client_type": 3
        }
      ],
      "api_key": [
        {
          "current_key": "AIzaSyAzXusblaDwfMNGm8CPAMAgEFq_WDnP0kY"
        }
      ],
      "services": {
        "analytics_service": {
          "status": 1
        },
        "appinvite_service": {
          "status": 1,
          "other_platform_oauth_client": []
        },
        "ads_service": {
          "status": 2
        }
      }
    }
  ],
  "configuration_version": "1"
}